name,"Initial Quantity On Hand",Qty,type,"Asset Account"
AIG082020062,-16,9,Inventory,Inventory
AIG082010084,2,7,Inventory,Inventory
AIG082010104,6,16,Inventory,Inventory
AIG082010114,-1,9,Inventory,Inventory
AIGEJKP,-28,472,Inventory,Inventory
AIG11004001B,47,67,Inventory,Inventory
AIG08102001-BLACK-L,-5,5,Inventory,Inventory
AIG02005008,-40,80,Inventory,Inventory
AIG01004004,-90,60,Inventory,Inventory
AIG02001014,-93,3,Inventory,Inventory
AIG05003006,-88,8,Inventory,Inventory
AIG06003005,-30,30,Inventory,Inventory
AIG09004004,-30,20,Inventory,Inventory
AIG08101001-LTB-S,0,10,Inventory,Inventory
AIG08101001-LTB-M,0,15,Inventory,Inventory
AIG08101001-LTB-L,0,3,Inventory,Inventory
AIG08101001-LTB-XL,0,2,Inventory,Inventory
AIG08101001-MNY-S,0,10,Inventory,Inventory
AIG08101001-MNY-M,-1,14,Inventory,Inventory
AIG08101001-MNY-L,0,3,Inventory,Inventory
AIG08101001-MNY-XL,0,2,Inventory,Inventory
AIG08101002-ANT-S,0,10,Inventory,Inventory
AIG08101002-ANT-M,0,15,Inventory,Inventory
AIG08101002-ANT-L,0,3,Inventory,Inventory
AIG08101002-ANT-XL,0,2,Inventory,Inventory
AIG08101002-BLK-S,-5,5,Inventory,Inventory
AIG08101002-BLK-M,-5,10,Inventory,Inventory
AIG08101002-BLK-L,-1,2,Inventory,Inventory
AIG08101002-BLK-XL,0,2,Inventory,Inventory
AIG05001010B,194,324,Inventory,Inventory
AIG05001011,-133,67,Inventory,Inventory
AIG01004005,-60,190,Inventory,Inventory
AIG04004017,515,499,Inventory,Inventory
AIG04002006,0,72,Inventory,Inventory
AIG04002007,-71,1,Inventory,Inventory
AIG02001016,-127,113,Inventory,Inventory
AIG02003021,0,192,Inventory,Inventory
AIG06002014,0,25,Inventory,Inventory
AIG06002013,-2,98,Inventory,Inventory
AIG1005,769,750,Inventory,Non-inventory
BS02002005,11,59,Inventory,Inventory
BS02003001,94,46,Inventory,Inventory
BS02001005,89,41,Inventory,Inventory
LC01004102,-16,134,Inventory,Inventory
LC02002114,-15,285,Inventory,Inventory
LC02003103,366,66,Inventory,Inventory
LC04002103,-1,35,Inventory,Inventory
LC04002104,11,47,Inventory,Inventory
LC10002101,-16,34,Inventory,Inventory
LC10003101,-107,61,Inventory,Inventory
LC10003102,41,53,Inventory,Inventory
LC02002111,205,55,Inventory,Inventory
LC02002113,-537,163,Inventory,Inventory
LC08202114MD,33,13,Inventory,Inventory
LC02001104,-150,130,Inventory,Inventory
LC08202114LG,31,11,Inventory,Inventory
LC08202114XL,23,19,Inventory,Inventory
LC04002102,-57,68,Inventory,Inventory
LC08102113XS,-1,9,Inventory,Inventory
LC082021173X,7,5,Inventory,Inventory
LC08202117MD,13,11,Inventory,Inventory
LC08102113MD,-2,8,Inventory,Inventory
LC08102113XL,-1,7,Inventory,Inventory
LC08202115LG,24,14,Inventory,Inventory
LC082021032X,5,7,Inventory,Inventory
LC08202104SM,8,11,Inventory,Inventory
LC08102113SM,-10,5,Inventory,Inventory
LC08202119XL,-5,1,Inventory,Inventory
LC08201101XL,22,12,Inventory,Inventory
LC08202103LG,0,2,Inventory,Inventory
LC08202114SM,24,9,Inventory,Inventory
LC08202119SM,-4,1,Inventory,Inventory
LC10001102,163,19,Inventory,Inventory
LC02001105,0,250,Inventory,Inventory
LC02001107,29,329,Inventory,Inventory
LC11004109,-8,112,Inventory,Inventory
LC02001106,-63,189,Inventory,Inventory
LC02002118,-63,225,Inventory,Inventory
LC01002107,-12,28,Inventory,Inventory
LC09303104,-50,238,Inventory,Inventory
LC02002119,-3,109,Inventory,Inventory
LC01002001,3,25,Inventory,Inventory
LC02001110,-1,140,Inventory,Inventory
LC02001108,192,60,Inventory,Inventory
HY02001105,80,34,Inventory,Inventory
HY02002112,71,23,Inventory,Inventory
HY02003103,55,7,Inventory,Inventory
HY02003107,315,111,Inventory,Inventory
HY02003108,71,76,Inventory,Inventory
HY09303101,131,18,Inventory,Inventory
HY09303102,141,31,Inventory,Inventory
HY09303105B,112,47,Inventory,Inventory
HY09303104,136,23,Inventory,Inventory
HY03002102,1163,1165,Inventory,Inventory
HY01002103,80,40,Inventory,Inventory
HY01001102,104,3,Inventory,Inventory
HY10001101,48,12,Inventory,Inventory
HY04002101,-5,43,Inventory,Inventory
HY08202105-L,-8,5,Inventory,Inventory
HY08202105-XXL,-10,3,Inventory,Inventory
HY08302102-M,0,15,Inventory,Inventory
HY08302102-L,0,15,Inventory,Inventory
HY08302102-XL,-1,14,Inventory,Inventory
HY08302102-XXL,-1,14,Inventory,Inventory
HY08201108-M,23,5,Inventory,Inventory
HY08201114-XL,19,11,Inventory,Inventory
HY08201114-XXL,9,11,Inventory,Inventory
HY08202103-S,13,14,Inventory,Inventory
HY08102103-S,-1,1,Inventory,Inventory
HY08102103-M,-5,3,Inventory,Inventory
HY08102103-XL,4,5,Inventory,Inventory
HY09301104,202,90,Inventory,Inventory
HY02001101,193,97,Inventory,Inventory
HY02003107B,251,123,Inventory,Inventory
HY09303103,203,91,Inventory,Inventory
HY09303103B,129,64,Inventory,Inventory
HY09303104B,104,10,Inventory,Inventory
HY09303105,168,56,Inventory,Inventory
HY09301101,170,61,Inventory,Inventory
HY09301104B,114,49,Inventory,Inventory
HY01001102B,51,1,Inventory,Inventory
HY08202104-L,-3,9,Inventory,Inventory
HY08202104-XL,-6,6,Inventory,Inventory
HY083031-04-L,50,5,Inventory,Inventory
HY08202104-M,13,25,Inventory,Inventory
HY08201115-M,23,4,Inventory,Inventory
HY083031-04-XL,54,9,Inventory,Inventory
HY08102101-M,1,8,Inventory,Inventory
HY08102101-L,4,14,Inventory,Inventory
HY08202102-M,-6,4,Inventory,Inventory
HY08102104-M,-2,1,Inventory,Inventory
HY08102104-L,0,3,Inventory,Inventory
HY08202106-S,7,8,Inventory,Inventory
HY08102106-L,3,4,Inventory,Inventory
HY083031-01-M,16,31,Inventory,Inventory
HY083031-01-XL,41,16,Inventory,Inventory
HY083031-01-XXL,26,1,Inventory,Inventory
HY083031-02-S,16,6,Inventory,Inventory
HY083031-02-M,35,10,Inventory,Inventory
HY083031-02-L,41,6,Inventory,Inventory
HY083031-02-XL,44,9,Inventory,Inventory
HY083031-02-XXL,27,2,Inventory,Inventory
HY083031-03-S,32,12,Inventory,Inventory
HY083031-03-XL,49,4,Inventory,Inventory
HY083031-04-S,26,16,Inventory,Inventory
HY083031-04-M,34,9,Inventory,Inventory
HY09303101B,103,9,Inventory,Inventory
HY12003102-L,22,23,Inventory,Inventory
HY12003104,-25,185,Inventory,Inventory
HY11004127,21,22,Inventory,Inventory
HY02001107,104,56,Inventory,Inventory
HY02002115,-4,44,Inventory,Inventory
HY02002116,100,52,Inventory,Inventory
HY08303107-01-M,20,5,Inventory,Inventory
HY08303107-01-XL,23,3,Inventory,Inventory
HY08303107-02-M,21,6,Inventory,Inventory
HY08303107-02-L,21,1,Inventory,Inventory
HY08303107-02-XXL,32,12,Inventory,Inventory
HY08303107-03-M,19,9,Inventory,Inventory
HY08303107-03-L,25,5,Inventory,Inventory
HY01003104,55,7,Inventory,Inventory
HY08303107-03-XXL,39,19,Inventory,Inventory
HY08303107-04-M,-4,6,Inventory,Inventory
HY08303107-04-L,15,5,Inventory,Inventory
HY08303107-04-XL,13,23,Inventory,Inventory
HY08303107-04-XXL,28,8,Inventory,Inventory
HY08101001-BLK-S,0,10,Inventory,Inventory
HY08101001-BLK-M,-7,3,Inventory,Inventory
HY08101001-BLK-L,0,10,Inventory,Inventory
HY08101001-BLK-XL,0,10,Inventory,Inventory
HY08101001-BLK-XXL,-2,8,Inventory,Inventory
HY08101001-GRY-S,-2,8,Inventory,Inventory
HY08101001-GRY-M,-7,3,Inventory,Inventory
HY08101001-GRY-L,-1,9,Inventory,Inventory
HY08101001-GRY-XL,-1,9,Inventory,Inventory
HY08101001-GRY-XXL,0,10,Inventory,Inventory
HY08201016-BLK-S,0,10,Inventory,Inventory
HY08201016-BLK-M,-1,9,Inventory,Inventory
HY08201016-BLK-XL,-2,8,Inventory,Inventory
HY08201016-BLK-XXL,-4,6,Inventory,Inventory
HY08201016-GRY-S,0,10,Inventory,Inventory
HY08201016-GRY-M,-1,9,Inventory,Inventory
HY08201016-GRY-XL,-2,8,Inventory,Inventory
HY08201016-GRY-XXL,-4,6,Inventory,Inventory
HY01005108,-21,59,Inventory,Inventory
HY06003104,-27,23,Inventory,Inventory
